^C:\USERS\TRAVIS\DESKTOP\TS_ANALYZER\TS_ANALYZER\STDAFX.CPP
/c /ZI /nologo /W3 /WX- /Od /Oy- /D WIN32 /D _DEBUG /D _CONSOLE /D _UNICODE /D UNICODE /Gm /EHsc /RTC1 /MDd /GS /fp:precise /Zc:wchar_t /Zc:forScope /Fo"DEBUG\\" /Fd"DEBUG\VC120.PDB" /Gd /TP /analyze- C:\USERS\TRAVIS\DESKTOP\TS_ANALYZER\TS_ANALYZER\STDAFX.CPP
^C:\USERS\TRAVIS\DESKTOP\TS_ANALYZER\TS_ANALYZER\TS_ANALYZER.CPP
/c /ZI /nologo /W3 /WX- /Od /Oy- /D WIN32 /D _DEBUG /D _CONSOLE /D _UNICODE /D UNICODE /Gm /EHsc /RTC1 /MDd /GS /fp:precise /Zc:wchar_t /Zc:forScope /Fo"DEBUG\\" /Fd"DEBUG\VC120.PDB" /Gd /TP /analyze- C:\USERS\TRAVIS\DESKTOP\TS_ANALYZER\TS_ANALYZER\TS_ANALYZER.CPP
